{
    "DBConfig":{
        "URL":"mongodb://127.0.0.1:23777/mydb"
    },
    "loggerConfig":{
        "fileMaxSize": 5242880,
        "maxFiles": 200,
        "fileLocation": "logs/",
        "fileName": "app.log"
    },
    "generalConfig":{
        "projectPath": "/home/project84/server",
        "pageSize": 20
    }
}